<svg xmlns="http://www.w3.org/2000/svg" xmlns:xlink="http://www.w3.org/1999/xlink" viewBox="717 275 36 36">
  <defs>
    <style>
      .cls-1 {
        fill: #4cb5ab;
      }

      .cls-2 {
        fill: #bf4610;
      }

      .cls-3 {
        fill: none;
      }

      .cls-4 {
        fill: #fff;
        fill-rule: evenodd;
      }

      .cls-5 {
        filter: url(#ellipse);
      }
    </style>
    <filter id="ellipse" x="717" y="275" width="36" height="36" filterUnits="userSpaceOnUse">
      <feOffset input="SourceAlpha"/>
      <feGaussianBlur stdDeviation="1" result="blur"/>
      <feFlood flood-opacity="0.122"/>
      <feComposite operator="in" in2="blur"/>
      <feComposite in="SourceGraphic"/>
    </filter>
  </defs>
  <g id="Group_77" data-name="Group 77" transform="translate(435)">
    <g id="return" transform="translate(748 587) rotate(180)">
      <g class="cls-5" transform="matrix(-1, 0, 0, -1, 1183, 587)">
        <circle id="ellipse-2" data-name="ellipse" class="cls-1" cx="15" cy="15" r="15" transform="translate(750 308) rotate(180)"/>
      </g>
      <path id="path" class="cls-2" d="M15,0A15,15,0,1,1,0,15,15,15,0,0,1,15,0Z" transform="translate(433 279)"/>
    </g>
    <g id="ic_arrow_forward" transform="translate(288 281)">
      <rect id="rectangle" class="cls-3" width="24" height="24"/>
      <path id="path-2" data-name="path" class="cls-4" d="M12,4,10.6,5.4,16.2,11H4v2H16.2l-5.6,5.6L12,20l8-8Z"/>
    </g>
  </g>
</svg>
