<svg xmlns="http://www.w3.org/2000/svg" viewBox="1002 917 132 132">
  <defs>
    <style>
      .cls-1, .cls-3 {
        fill: none;
        stroke: #95989a;
        stroke-width: 4px;
      }

      .cls-1 {
        stroke-miterlimit: 10;
      }

      .cls-2 {
        fill: #95989a;
      }

      .cls-3 {
        stroke-linecap: round;
        stroke-linejoin: round;
      }
    </style>
  </defs>
  <g id="emoticon" transform="translate(1003 918)">
    <circle id="Ellipse_58" data-name="Ellipse 58" class="cls-1" cx="64" cy="64" r="64" transform="translate(1 1)"/>
    <circle id="Ellipse_59" data-name="Ellipse 59" class="cls-2" cx="8.348" cy="8.348" r="8.348" transform="translate(37.174 39.957)"/>
    <circle id="Ellipse_60" data-name="Ellipse 60" class="cls-2" cx="8.348" cy="8.348" r="8.348" transform="translate(76.13 39.957)"/>
    <line id="Line_70" data-name="Line 70" class="cls-3" x2="36.174" transform="translate(48.304 92.826)"/>
  </g>
</svg>
