{
    "cordova-plugin-facebook4": {
        "source": {
            "type": "registry",
            "id": "cordova-plugin-facebook4"
        },
        "is_top_level": true,
        "variables": {}
    },
    "cordova-plugin-device": {
        "source": {
            "type": "registry",
            "id": "cordova-plugin-device@~1.1.3"
        },
        "is_top_level": true,
        "variables": {}
    },
    "cordova-plugin-whitelist": {
        "source": {
            "type": "registry",
            "id": "cordova-plugin-whitelist@1.3.2"
        },
        "is_top_level": true,
        "variables": {}
    }
}